{
  "changes": [
    {
      "description": "Bump awscli version to 2.15.15.",
      "type": "minor"
    },
    {
      "description": "Bump kubectl version to 1.29.",
      "type": "minor"
    }
  ],
  "created_at": "2024-01-31T15:15:19+00:00",
  "version": "3.10.0"
}